_jtag_sniff/jtag2/jtag.vcd
$date today $end
$timescale 1 ns $end
$scope module e200z0 $end
$var string 1 2 core $end
$var string 1 3 operation $end
$var string 1 4 status $end
$var wire 1 5 warning $end
$upscope $end
$scope module parsed $end
$var string 1 0 tap_state $end
$var string 1 1 jtag $end
$upscope $end
$enddefinitions $end
#0
$dumpvars
stest_logic_reset 0
stest_logic_reset 1
sunknown 2
sunknown 3
sunknown 4
05
$end
#2808710250
srun_test_idle 0
#2808714500
sselect_dr_scan 0
#2808718750
sselect_ir_scan 0
#2808722750
scapture_ir 0
#2808726750
sshift_ir 0
#2808774500
sexit1_ir 0
#2808778750
supdate_ir 0
#2808782750
05
sOCMD=W-GO-CPUSCR-OSR=MCLKa-DEBUG 2
sMCLKa-DEBUG 4
sir_i=0000100010-ir_o=1001000001 1
srun_test_idle 0
#2808800000
sselect_dr_scan 0
#2808804000
scapture_dr 0
#2808808000
sshift_dr 0
#2809657000
sexit1_dr 0
#2809669750
supdate_dr 0
#2809673750
sCPUSCRwrite(192) 2
sCPUSCRwrite(192) 3
sin=000000001101000111000000001000110000000000000000000000000000000000000000000011000000000001000000000000000000001111111111111111110000010010001111111100111111111001000000001100000000000000000000-out=000100111111100100000000000000100100000000000000000000000000000000000000000011000000000001000000001000000000001111111111111111110110010111000000100000000011111001000000000000000000000000000000 1
srun_test_idle 0
#2809699250
sselect_dr_scan 0
#2809703250
sselect_ir_scan 0
#2809707500
scapture_ir 0
#2809711500
sshift_ir 0
#2809759250
sexit1_ir 0
#2809763500
supdate_ir 0
#2809767500
05
sOCMD=W-DBCR0-OSR=MCLKa-DEBUG 2
sMCLKa-DEBUG 4
sir_i=1000110000-ir_o=1001000001 1
srun_test_idle 0
#2809784750
sselect_dr_scan 0
#2809788750
sselect_ir_scan 0
#2809792750
scapture_ir 0
#2809797000
sshift_ir 0
#2809844750
sexit1_ir 0
#2809848750
supdate_ir 0
#2809853000
05
sOCMD=W-DBCR0-OSR=MCLKa-DEBUG 2
sMCLKa-DEBUG 4
sir_i=1000110000-ir_o=1001000001 1
srun_test_idle 0
#2809870250
sselect_dr_scan 0
#2809874250
sselect_ir_scan 0
#2809878250
scapture_ir 0
#2809882500
sshift_ir 0
#2809930250
sexit1_ir 0
#2809934250
supdate_ir 0
#2809938500
05
sOCMD=NRSBYPASS-OSR=MCLKa-DEBUG 2
sMCLKa-DEBUG 4
sir_i=1000100000-ir_o=1001000001 1
srun_test_idle 0
#2810578000
sselect_dr_scan 0
#2810582250
sselect_ir_scan 0
#2810586250
scapture_ir 0
#2810590250
sshift_ir 0
#2810638000
sexit1_ir 0
#2810642250
supdate_ir 0
#2810646250
05
sOCMD=W-GO-CPUSCR-OSR=MCLKa-DEBUG 2
sMCLKa-DEBUG 4
sir_i=0000100010-ir_o=1001000001 1
srun_test_idle 0
#2810663500
sselect_dr_scan 0
#2810667500
scapture_dr 0
#2810671500
sshift_dr 0
#2811519250
sexit1_dr 0
#2811532250
supdate_dr 0
#2811536250
15
sCPUSCRwrite(192) 2
sCPUSCRwrite(192) 3
sin=110011110100000110001010001000010000000000000000000000000000000000000000000011000000000001000000000000000000001111111111111111110000000000001111011110111101110001000000001000000000000000000000-out=000000001101000111000000001000100000000000000000000000000000000000000000000011000000000001000000001000000000001111111111111111110110010111000000100000000011111001000000000000000000000000000000 1
srun_test_idle 0
#2811561750
sselect_dr_scan 0
#2811565750
sselect_ir_scan 0
#2811569750
scapture_ir 0
#2811574000
sshift_ir 0
#2811621750
sexit1_ir 0
#2811625750
supdate_ir 0
#2811630000
05
sOCMD=NRSBYPASS-OSR=MCLKa-DEBUG 2
sMCLKa-DEBUG 4
sir_i=1000100000-ir_o=1001000001 1
srun_test_idle 0
#2811647250
sselect_dr_scan 0
#2811651250
sselect_ir_scan 0
#2811655250
scapture_ir 0
#2811659500
sshift_ir 0
#2811707250
sexit1_ir 0
#2811711250
supdate_ir 0
#2811715500
05
sOCMD=NRSBYPASS-OSR=MCLKa-DEBUG 2
sMCLKa-DEBUG 4
sir_i=1000100000-ir_o=1001000001 1
srun_test_idle 0
#2811732750
sselect_dr_scan 0
#2811736750
sselect_ir_scan 0
#2811740750
scapture_ir 0
#2811745000
sshift_ir 0
#2811792750
sexit1_ir 0
#2811796750
supdate_ir 0
#2811801000
05
sOCMD=NRSBYPASS-OSR=MCLKa-DEBUG 2
sMCLKa-DEBUG 4
sir_i=1000100000-ir_o=1001000001 1
srun_test_idle 0
#2811818250
sselect_dr_scan 0
#2811822250
sselect_ir_scan 0
#2811826250
scapture_ir 0
#2811830500
sshift_ir 0
#2811878250
sexit1_ir 0
#2811882250
supdate_ir 0
#2811886500
05
sOCMD=W-GO-CPUSCR-OSR=MCLKa-DEBUG 2
sMCLKa-DEBUG 4
sir_i=0000100010-ir_o=1001000001 1
srun_test_idle 0
#2811903750
sselect_dr_scan 0
#2811907750
scapture_dr 0
#2811911750
sshift_dr 0
#2813353750
sexit1_dr 0
#2813366500
supdate_dr 0
#2813370750
15
sCPUSCRwrite(192) 2
sCPUSCRwrite(192) 3
sin=110011110110000110001011001000011000000000000000000000000000000000000000000011000000000001000000000000000000001111111111111111110110010111010000010110111111111001000000001000000000000000000000-out=110011110100000110001010001000010000000000000000000000000000000000000000000011000000000001000000001000000000001111111111111111110110010111000000100000000011111001000000000000000000000000000000 1
srun_test_idle 0
#2813396000
sselect_dr_scan 0
#2813400000
sselect_ir_scan 0
#2813404250
scapture_ir 0
#2813408250
sshift_ir 0
#2813456000
sexit1_ir 0
#2813460250
supdate_ir 0
#2813464250
05
sOCMD=W-DBCR0-OSR=MCLKa-DEBUG 2
sMCLKa-DEBUG 4
sir_i=1000110000-ir_o=1001000001 1
srun_test_idle 0
#2813481500
sselect_dr_scan 0
#2813485500
sselect_ir_scan 0
#2813489750
scapture_ir 0
#2813493750
sshift_ir 0
#2813541500
sexit1_ir 0
#2813545750
supdate_ir 0
#2813549750
05
sOCMD=W-DBCR0-OSR=MCLKa-DEBUG 2
sMCLKa-DEBUG 4
sir_i=1000110000-ir_o=1001000001 1
srun_test_idle 0
#2813567000
sselect_dr_scan 0
#2813571000
sselect_ir_scan 0
#2813575250
scapture_ir 0
#2813579250
sshift_ir 0
#2813627000
sexit1_ir 0
#2813631250
supdate_ir 0
#2813635250
05
sOCMD=W-DBCR0-OSR=MCLKa-DEBUG 2
sMCLKa-DEBUG 4
sir_i=1000110000-ir_o=1001000001 1
srun_test_idle 0
#2814236250
sselect_dr_scan 0
#2814240500
sselect_ir_scan 0
#2814244500
scapture_ir 0
#2814248500
sshift_ir 0
#2814296250
sexit1_ir 0
#2814300500
supdate_ir 0
#2814304500
05
sOCMD=R-DBSR-OSR=MCLKa-DEBUG 2
sMCLKa-DEBUG 4
sir_i=0000110011-ir_o=1001000001 1
srun_test_idle 0
#2814321750
sselect_dr_scan 0
#2814325750
scapture_dr 0
#2814330000
sshift_dr 0
#2815178750
sexit1_dr 0
#2815191500
supdate_dr 0
#2815195500
sR-DBSR(192) 3
sin=011001100001111000000100100000000000000000000000000000000000000000000000000011000000000001000000000000000000001111111111111111110000000000001011011110111101100001000000001100000000000000000000-out=110011110100000110001010001000010000000000000000000000000000000000000000000011000000000001000000001000000000001111111111111111110110010111000000100000000011111001000000000000000000000000000000 1
srun_test_idle 0
#2815221000
sselect_dr_scan 0
#2815225000
sselect_ir_scan 0
#2815229250
scapture_ir 0
#2815233250
sshift_ir 0
#2815281000
sexit1_ir 0
#2815285250
supdate_ir 0
#2815289250
05
sOCMD=W-DBCR0-OSR=MCLKa-DEBUG 2
sMCLKa-DEBUG 4
sir_i=1000110000-ir_o=1001000001 1
srun_test_idle 0
#2815306500
sselect_dr_scan 0
#2815310500
sselect_ir_scan 0
#2815314750
scapture_ir 0
#2815318750
sshift_ir 0
#2815366500
sexit1_ir 0
#2815370750
supdate_ir 0
#2815374750
05
sOCMD=W-DBCR0-OSR=MCLKa-DEBUG 2
sMCLKa-DEBUG 4
sir_i=1000110000-ir_o=1001000001 1
srun_test_idle 0
#2815392000
sselect_dr_scan 0
#2815396000
sselect_ir_scan 0
#2815400250
scapture_ir 0
#2815404250
sshift_ir 0
#2815452000
sexit1_ir 0
#2815456250
supdate_ir 0
#2815460250
05
sOCMD=W-DBCR0-OSR=MCLKa-DEBUG 2
sMCLKa-DEBUG 4
sir_i=1000110000-ir_o=1001000001 1
srun_test_idle 0
#2815477500
sselect_dr_scan 0
#2815481500
sselect_ir_scan 0
#2815485500
scapture_ir 0
#2815489750
sshift_ir 0
#2815537500
sexit1_ir 0
#2815541500
supdate_ir 0
#2815545750
05
sOCMD=W-GO-CPUSCR-OSR=MCLKa-DEBUG 2
sMCLKa-DEBUG 4
sir_i=0000100010-ir_o=1001000001 1
srun_test_idle 0
#2815563000
sselect_dr_scan 0
#2815567000
scapture_dr 0
#2815571000
sshift_dr 0
#2817037750
sexit1_dr 0
#2817050750
supdate_dr 0
#2817054750
15
sCPUSCRwrite(192) 2
sCPUSCRwrite(192) 3
sin=010001100001111000000100100000000000000000000000000000000000000000000000000011000000000001000000000000000000001111111111111111110110010111010000110110111111111001000000001100000000000000000000-out=010001100001111000000100100000000000000000000000000000000000000000000000000011000000000001000000001000000000001111111111111111110110010111000000100000000011111001000000000000000000000000000000 1
srun_test_idle 0
#2817080250
sselect_dr_scan 0
#2817084250
sselect_ir_scan 0
#2817088250
scapture_ir 0
#2817092500
sshift_ir 0
#2817140250
sexit1_ir 0
#2817144250
supdate_ir 0
#2817148500
05
sOCMD=NRSBYPASS-OSR=MCLKa-DEBUG 2
sMCLKa-DEBUG 4
sir_i=1000100000-ir_o=1001000001 1
srun_test_idle 0
#2817165750
sselect_dr_scan 0
#2817169750
sselect_ir_scan 0
#2817173750
scapture_ir 0
#2817178000
sshift_ir 0
#2817225750
sexit1_ir 0
#2817229750
supdate_ir 0
#2817234000
05
sOCMD=NRSBYPASS-OSR=MCLKa-DEBUG 2
sMCLKa-DEBUG 4
sir_i=1000100000-ir_o=1001000001 1
srun_test_idle 0
#2817251250
sselect_dr_scan 0
#2817255250
sselect_ir_scan 0
#2817259250
scapture_ir 0
#2817263500
sshift_ir 0
#2817311250
sexit1_ir 0
#2817315250
supdate_ir 0
#2817319500
05
sOCMD=NRSBYPASS-OSR=MCLKa-DEBUG 2
sMCLKa-DEBUG 4
sir_i=1000100000-ir_o=1001000001 1
srun_test_idle 0
#2817922500
sselect_dr_scan 0
#2817926500
sselect_ir_scan 0
#2817930500
scapture_ir 0
#2817934750
sshift_ir 0
#2817982500
sexit1_ir 0
#2817986500
supdate_ir 0
#2817990750
05
sOCMD=W-GO-CPUSCR-OSR=MCLKa-DEBUG 2
sMCLKa-DEBUG 4
sir_i=0000100010-ir_o=1001000001 1
srun_test_idle 0
#2818008000
sselect_dr_scan 0
#2818012000
scapture_dr 0
#2818016000
sshift_dr 0
#2818862250
sexit1_dr 0
#2818875250
supdate_dr 0
#2818879250
15
sCPUSCRwrite(192) 2
sCPUSCRwrite(192) 3
sin=000000000000000000000000000000000000000000000000000000000000000000000000000011000000000001100000000000000000001111111111111111110000000000001111011110111101110001000000001000000000000000000000-out=010001100001111000000100100000000000000000000000000000000000000000000000000011000000000001000000001000000000001111111111111111110110010111000000100000000011111001000000000000000000000000000000 1
srun_test_idle 0
#2818904750
sselect_dr_scan 0
#2818908750
sselect_ir_scan 0
#2818912750
scapture_ir 0
#2818917000
sshift_ir 0
#2818964750
sexit1_ir 0
#2818968750
supdate_ir 0
#2818973000
05
sOCMD=NRSBYPASS-OSR=MCLKa-DEBUG 2
sMCLKa-DEBUG 4
sir_i=1000100000-ir_o=1001000001 1
srun_test_idle 0
#2818990250
sselect_dr_scan 0
#2818994250
sselect_ir_scan 0
#2818998250
scapture_ir 0
#2819002500
sshift_ir 0
#2819050250
sexit1_ir 0
#2819054250
supdate_ir 0
#2819058250
05
sOCMD=NRSBYPASS-OSR=MCLKa-DEBUG 2
sMCLKa-DEBUG 4
sir_i=1000100000-ir_o=1001000001 1
srun_test_idle 0
#2819075500
sselect_dr_scan 0
#2819079750
sselect_ir_scan 0
#2819083750
scapture_ir 0
#2819087750
sshift_ir 0
#2819135750
sexit1_ir 0
#2819139750
supdate_ir 0
#2819143750
05
sOCMD=W-!!!!19-OSR=MCLKa-DEBUG 2
sMCLKa-DEBUG 4
sir_i=1100100000-ir_o=1001000001 1
srun_test_idle 0
#2819161000
sselect_dr_scan 0
#2819165250
sselect_ir_scan 0
#2819169250
scapture_ir 0
#2819173250
sshift_ir 0
#2819221250
sexit1_ir 0
#2819225250
supdate_ir 0
#2819229250
05
sOCMD=W-GO-CPUSCR-OSR=MCLKa-DEBUG 2
sMCLKa-DEBUG 4
sir_i=0000100010-ir_o=1001000001 1
srun_test_idle 0
#2819246500
sselect_dr_scan 0
#2819250750
scapture_dr 0
#2819254750
sshift_dr 0
#2820756750
sexit1_dr 0
#2820769750
supdate_dr 0
#2820773750
15
sCPUSCRwrite(192) 2
sCPUSCRwrite(192) 3
sin=000000000000000000000000000000000000000000000000000000000000000000000000000011000000000001000000000000000000001111111111111111111110011111110001001110111111111001000000001000000000000000000000-out=000000000000000000000000000000000000000000000000000000000000000000000000000011000000000001000000001000000000001111111111111111110110010111000000100000000011111001000000000000000000000000000000 1
srun_test_idle 0
#2820799000
sselect_dr_scan 0
#2820803250
sselect_ir_scan 0
#2820807250
scapture_ir 0
#2820811250
sshift_ir 0
#2820859250
sexit1_ir 0
#2820863250
supdate_ir 0
#2820867250
05
sOCMD=W-!!!!19-OSR=MCLKa-DEBUG 2
sMCLKa-DEBUG 4
sir_i=1100100000-ir_o=1001000001 1
srun_test_idle 0
#2820884500
sselect_dr_scan 0
#2820888750
sselect_ir_scan 0
#2820892750
scapture_ir 0
#2820896750
sshift_ir 0
#2820944750
sexit1_ir 0
#2820948750
supdate_ir 0
#2820952750
05
sOCMD=W-!!!!19-OSR=MCLKa-DEBUG 2
sMCLKa-DEBUG 4
sir_i=1100100000-ir_o=1001000001 1
srun_test_idle 0
#2820970000
sselect_dr_scan 0
#2820974250
sselect_ir_scan 0
#2820978250
scapture_ir 0
#2820982250
sshift_ir 0
#2821030250
sexit1_ir 0
#2821034250
supdate_ir 0
#2821038250
05
sOCMD=W-!!!!19-OSR=MCLKa-DEBUG 2
sMCLKa-DEBUG 4
sir_i=1100100000-ir_o=1001000001 1
srun_test_idle 0
#2821798500
sselect_dr_scan 0
#2821802500
sselect_ir_scan 0
#2821806750
scapture_ir 0
#2821810750
sshift_ir 0
#2821858500
sexit1_ir 0
#2821862750
supdate_ir 0
#2821866750
05
sOCMD=W-GO-CPUSCR-OSR=MCLKa-DEBUG 2
sMCLKa-DEBUG 4
sir_i=0000100010-ir_o=1001000001 1
srun_test_idle 0
#2821884000
sselect_dr_scan 0
#2821888000
scapture_dr 0
#2821892000
sshift_dr 0
#2822736000
sexit1_dr 0
#2822748750
supdate_dr 0
#2822752750
sCPUSCRwrite(192) 2
sCPUSCRwrite(192) 3
sin=000000000000000010000000000000000000000000000000000000000000000000000000000011000000000001000000000000000000001111111111111111110000000000001011011110111101100001000000001100000000000000000000-out=000000000000000000000000000000000000000000000000000000000000000000000000000011000000000001000000001000000000001111111111111111110110010111000000100000000011111001000000000000000000000000000000 1
srun_test_idle 0
#2822778250
sselect_dr_scan 0
#2822782250
sselect_ir_scan 0
#2822786500
scapture_ir 0
#2822790500
sshift_ir 0
#2822838250
sexit1_ir 0
#2822842500
supdate_ir 0
#2822846500
05
sOCMD=W-DBCR0-OSR=MCLKa-DEBUG 2
sMCLKa-DEBUG 4
sir_i=1000110000-ir_o=1001000001 1
srun_test_idle 0
#2822863750
sselect_dr_scan 0
#2822867750
sselect_ir_scan 0
#2822872000
scapture_ir 0
#2822876000
sshift_ir 0
#2822923750
sexit1_ir 0
#2822928000
supdate_ir 0
#2822932000
05
sOCMD=W-DBCR0-OSR=MCLKa-DEBUG 2
sMCLKa-DEBUG 4
sir_i=1000110000-ir_o=1001000001 1
srun_test_idle 0
#2822949250
sselect_dr_scan 0
#2822953250
sselect_ir_scan 0
#2822957500
scapture_ir 0
#2822961500
sshift_ir 0
#2823009250
sexit1_ir 0
#2823013500
supdate_ir 0
#2823017500
05
sOCMD=W-DBCR0-OSR=MCLKa-DEBUG 2
sMCLKa-DEBUG 4
sir_i=1000110000-ir_o=1001000001 1
srun_test_idle 0
#2823034750
sselect_dr_scan 0
#2823038750
sselect_ir_scan 0
#2823043000
scapture_ir 0
#2823047000
sshift_ir 0
#2823094750
sexit1_ir 0
#2823099000
supdate_ir 0
#2823103000
05
sOCMD=W-GO-CPUSCR-OSR=MCLKa-DEBUG 2
sMCLKa-DEBUG 4
sir_i=0000100010-ir_o=1001000001 1
srun_test_idle 0
#2823120250
sselect_dr_scan 0
#2823124250
scapture_dr 0
#2823128250
sshift_dr 0
#2824563250
sexit1_dr 0
#2824576000
supdate_dr 0
#2824580000
15
sCPUSCRwrite(192) 2
sCPUSCRwrite(192) 3
sin=000000000000000010000000000000000000000000000000000000000000000000000000000011000000000001000000000000000000001111111111111111110111010111010000111110111111111001000000001100000000000000000000-out=000000000000000010000000000000000000000000000000000000000000000000000000000011000000000001000000001000000000001111111111111111110110010111000000100000000011111001000000000000000000000000000000 1
srun_test_idle 0
#2824605500
sselect_dr_scan 0
#2824609500
sselect_ir_scan 0
#2824613750
scapture_ir 0
#2824617750
sshift_ir 0
#2824665500
sexit1_ir 0
#2824669750
supdate_ir 0
#2824673750
05
sOCMD=W-DBCR0-OSR=MCLKa-DEBUG 2
sMCLKa-DEBUG 4
sir_i=1000110000-ir_o=1001000001 1
srun_test_idle 0
#2824691000
sselect_dr_scan 0
#2824695000
sselect_ir_scan 0
#2824699250
scapture_ir 0
#2824703250
sshift_ir 0
#2824751000
sexit1_ir 0
#2824755000
supdate_ir 0
#2824759250
05
sOCMD=W-DBCR0-OSR=MCLKa-DEBUG 2
sMCLKa-DEBUG 4
sir_i=1000110000-ir_o=1001000001 1
srun_test_idle 0
#2824776500
sselect_dr_scan 0
#2824780500
sselect_ir_scan 0
#2824784500
scapture_ir 0
#2824788750
sshift_ir 0
#2824836500
sexit1_ir 0
#2824840500
supdate_ir 0
#2824844750
05
sOCMD=W-DBCR0-OSR=MCLKa-DEBUG 2
sMCLKa-DEBUG 4
sir_i=1000110000-ir_o=1001000001 1
srun_test_idle 0
#2825470000
sselect_dr_scan 0
#2825474250
sselect_ir_scan 0
#2825478250
scapture_ir 0
#2825482250
sshift_ir 0
#2825530250
sexit1_ir 0
#2825534250
supdate_ir 0
#2825538250
05
sOCMD=W-GO-CPUSCR-OSR=MCLKa-DEBUG 2
sMCLKa-DEBUG 4
sir_i=0000100010-ir_o=1001000001 1
srun_test_idle 0
#2825555500
sselect_dr_scan 0
#2825559750
scapture_dr 0
#2825563750
sshift_dr 0
#2826408750
sexit1_dr 0
#2826421500
supdate_dr 0
#2826425750
sCPUSCRwrite(192) 2
sCPUSCRwrite(192) 3
sin=000001011101010000000000000000100000000000000000000000000000000000000000000011000000000001000000000000000000001111111111111111111000000000001011011111111101100001000000001000000000000000000000-out=000000000000000010000000000000000000000000000000000000000000000000000000000011000000000001000000001000000000001111111111111111110110010111000000100000000011111001000000000000000000000000000000 1
srun_test_idle 0
#2826451000
sselect_dr_scan 0
#2826455250
sselect_ir_scan 0
#2826459250
scapture_ir 0
#2826463250
sshift_ir 0
#2826511000
sexit1_ir 0
#2826515250
supdate_ir 0
#2826519250
05
sOCMD=NRSBYPASS-OSR=MCLKa-DEBUG 2
sMCLKa-DEBUG 4
sir_i=1000100000-ir_o=1001000001 1
srun_test_idle 0
#2826536500
sselect_dr_scan 0
#2826540750
sselect_ir_scan 0
#2826544750
scapture_ir 0
#2826548750
sshift_ir 0
#2826596500
sexit1_ir 0
#2826600750
supdate_ir 0
#2826604750
05
sOCMD=NRSBYPASS-OSR=MCLKa-DEBUG 2
sMCLKa-DEBUG 4
sir_i=1000100000-ir_o=1001000001 1
srun_test_idle 0
#2826622000
sselect_dr_scan 0
#2826626250
sselect_ir_scan 0
#2826630250
scapture_ir 0
#2826634250
sshift_ir 0
#2826682000
sexit1_ir 0
#2826686250
supdate_ir 0
#2826690250
05
sOCMD=NRSBYPASS-OSR=MCLKa-DEBUG 2
sMCLKa-DEBUG 4
sir_i=1000100000-ir_o=1001000001 1
srun_test_idle 0
#2827444000
sselect_dr_scan 0
#2827448250
sselect_ir_scan 0
#2827452250
scapture_ir 0
#2827456250
sshift_ir 0
#2827504000
sexit1_ir 0
#2827508250
supdate_ir 0
#2827512250
05
sOCMD=R-DBSR-OSR=MCLKa-DEBUG 2
sMCLKa-DEBUG 4
sir_i=0000110011-ir_o=1001000001 1
srun_test_idle 0
#2827529500
sselect_dr_scan 0
#2827533500
scapture_dr 0
#2827537750
sshift_dr 0
#2828383750
sexit1_dr 0
#2828396500
supdate_dr 0
#2828400500
sR-DBSR(192) 3
sin=000000000000000000000000000000000000000000000000000000000000000000000000000011000000000001000000000000000000001111111111111111110000000000001011111111111101100001000000001100000000000000000000-out=000001011101010000000000000000100000000000000000000000000000000000000000000011000000000001000000001000000000001111111111111111110110010111000000100000000011111001000000000000000000000000000000 1
srun_test_idle 0
#2828426000
sselect_dr_scan 0
#2828430000
sselect_ir_scan 0
#2828434250
scapture_ir 0
#2828438250
sshift_ir 0
#2828486000
sexit1_ir 0
#2828490250
supdate_ir 0
#2828494250
05
sOCMD=W-DBCR0-OSR=MCLKa-DEBUG 2
sMCLKa-DEBUG 4
sir_i=1000110000-ir_o=1001000001 1
srun_test_idle 0
#2828511500
sselect_dr_scan 0
#2828515500
sselect_ir_scan 0
#2828519750
scapture_ir 0
#2828523750
sshift_ir 0
#2828571500
sexit1_ir 0
#2828575750
supdate_ir 0
#2828579750
05
sOCMD=W-DBCR0-OSR=MCLKa-DEBUG 2
sMCLKa-DEBUG 4
sir_i=1000110000-ir_o=1001000001 1
srun_test_idle 0
#2828597000
sselect_dr_scan 0
#2828601000
sselect_ir_scan 0
#2828605250
scapture_ir 0
#2828609250
sshift_ir 0
#2828657000
sexit1_ir 0
#2828661250
supdate_ir 0
#2828665250
05
sOCMD=W-DBCR0-OSR=MCLKa-DEBUG 2
sMCLKa-DEBUG 4
sir_i=1000110000-ir_o=1001000001 1
srun_test_idle 0
#2829289250
sselect_dr_scan 0
#2829293250
sselect_ir_scan 0
#2829297500
scapture_ir 0
#2829301500
sshift_ir 0
#2829349250
sexit1_ir 0
#2829353500
supdate_ir 0
#2829357500
05
sOCMD=W-GO-CPUSCR-OSR=MCLKa-DEBUG 2
sMCLKa-DEBUG 4
sir_i=0000100010-ir_o=1001000001 1
srun_test_idle 0
#2830138000
sselect_dr_scan 0
#2830142000
scapture_dr 0
#2830146000
sshift_dr 0
#2830990000
sexit1_dr 0
#2831003000
supdate_dr 0
#2831007000
15
sCPUSCRwrite(192) 2
sCPUSCRwrite(192) 3
sin=000110111111100100000000000000100000011101111001000000000000001100000000000010010000000000000000000010110000011101000000000000001000000010010011000000000001011101000000000000000000000000000000-out=000000000000000000000000000000000000000000000000000000000000000000000000000011000000000001000000001000000000001111111111111111110110010111000000100000000011111001000000000000000000000000000000 1
srun_test_idle 0
#2831800500
sselect_dr_scan 0
#2831804750
sselect_ir_scan 0
#2831808750
scapture_ir 0
#2831812750
sshift_ir 0
#2831860750
sexit1_ir 0
#2831864750
supdate_ir 0
#2831868750
05
sOCMD=W-!!!!19-OSR=MCLKa-DEBUG 2
sMCLKa-DEBUG 4
sir_i=1100100000-ir_o=1001000001 1
srun_test_idle 0
#2831882250
sselect_dr_scan 0
#2831886250
scapture_dr 0
#2831890500
sexit1_dr 0
#2831894500
spause_dr 0
#2831898500
sexit2_dr 0
#2831902750
supdate_dr 0
#2831906750
15
sin=NULL-out=NULL 1
srun_test_idle 0
#2831928250
sselect_dr_scan 0
#2831932250
sselect_ir_scan 0
#2831936250
scapture_ir 0
#2831940500
sshift_ir 0
#2831960000
sexit1_ir 0
#2831963750
supdate_ir 0
#2831968000
sBADLEN-iri=00001-iro=10000 2
15
sir_i=00001-ir_o=10000 1
srun_test_idle 0
#2831984500
sselect_dr_scan 0
#2831988750
sselect_ir_scan 0
#2831992750
scapture_ir 0
#2831996750
sshift_ir 0
#2832012250
sexit1_ir 0
#2832016000
supdate_ir 0
#2832020000
sBADLEN-iri=0000-iro=0000 2
15
sir_i=0000-ir_o=0000 1
srun_test_idle 0
#2832033250
sselect_dr_scan 0
#2832037250
scapture_dr 0
#2832041500
sshift_dr 0
#2832087000
sexit1_dr 0
#2832099500
supdate_dr 0
#2832103500
15
sin=001111111-out=011111110 1
sselect_dr_scan 0
#2832107500
scapture_dr 0
#2832111750
sshift_dr 0
#2832250500
sexit1_dr 0
#2832263500
supdate_dr 0
#2832267500
15
sin=00000000000000000000000000000000-out=00000000000000010000000000000000 1
srun_test_idle 0
#2833066750
sselect_dr_scan 0
#2833070750
scapture_dr 0
#2833075000
sexit1_dr 0
#2833079000
spause_dr 0
#2833083000
sexit2_dr 0
#2833087250
supdate_dr 0
#2833091250
15
sin=NULL-out=NULL 1
srun_test_idle 0
#2833112750
sselect_dr_scan 0
#2833116750
sselect_ir_scan 0
#2833120750
scapture_ir 0
#2833125000
sshift_ir 0
#2833144500
sexit1_ir 0
#2833148500
supdate_ir 0
#2833152500
sBADLEN-iri=11001-iro=10000 2
15
sir_i=11001-ir_o=10000 1
srun_test_idle 0
#2833169750
sselect_dr_scan 0
#2833173750
sselect_ir_scan 0
#2833177750
scapture_ir 0
#2833182000
sshift_ir 0
#2833229750
sexit1_ir 0
#2833234000
supdate_ir 0
#2833238000
05
sOCMD=NRSBYPASS-OSR=MCLKa-DEBUG 2
sMCLKa-DEBUG 4
sir_i=1000100001-ir_o=1001000001 1
srun_test_idle 0
#2834025000
sselect_dr_scan 0
#2834029000
sselect_ir_scan 0
#2834033000
scapture_ir 0
#2834037250
sshift_ir 0
#2834085000
sexit1_ir 0
#2834089250
supdate_ir 0
#2834093250
05
sOCMD=R-DBSR-OSR=MCLKa-DEBUG 2
sMCLKa-DEBUG 4
sir_i=0000110001-ir_o=1001000001 1
srun_test_idle 0
#2834734000
sselect_dr_scan 0
#2834738000
scapture_dr 0
#2834742250
sshift_dr 0
#2835581750
sexit1_dr 0
#2835594750
supdate_dr 0
#2835598750
sR-DBSR(192) 3
sin=000000000000000000000000000000000000000000000000000000000000000000000000000000000000000000000000000000000000000000000000000000000000000000000000000000000000000000000000000000000000000000000000-out=000100111111100100000000000000100000011101111001000000000000001000000000000010010000000000000000000010110000011001000000000000001000000010010011000000000001011101000000000000000000000000000000 1
srun_test_idle 0
#2836228250
sselect_dr_scan 0
#2836232250
sselect_ir_scan 0
#2836236250
scapture_ir 0
#2836240500
sshift_ir 0
#2836288250
sexit1_ir 0
#2836292250
supdate_ir 0
#2836296500
05
sOCMD=W-GO-CPUSCR-OSR=MCLKa-DEBUG 2
sMCLKa-DEBUG 4
sir_i=0000100010-ir_o=1001000001 1
srun_test_idle 0
#2836313750
sselect_dr_scan 0
#2836317750
scapture_dr 0
#2836321750
sshift_dr 0
#2836886750
sexit1_dr 0
#2836899750
supdate_dr 0
#2836903750
sCPUSCRwrite(128) 2
sCPUSCRwrite(128) 3
sin=00000000000011000000000001100000000000000000001111111111111111111000000000001011011110111101100001100000000000000000000000000000-out=00010011111110010000000000000010000001110111100100000000000000100000000000001001000000000000000000001011000001100100000000000000 1
srun_test_idle 0
#2836929250
sselect_dr_scan 0
#2836933250
sselect_ir_scan 0
#2836937250
scapture_ir 0
#2836941500
sshift_ir 0
#2836989250
sexit1_ir 0
#2836993250
supdate_ir 0
#2836997500
05
sOCMD=NRSBYPASS-OSR=MCLKa-DEBUG 2
sMCLKa-DEBUG 4
sir_i=1000100000-ir_o=1001000001 1
srun_test_idle 0
#2837014750
sselect_dr_scan 0
#2837018750
sselect_ir_scan 0
#2837022750
scapture_ir 0
#2837027000
sshift_ir 0
#2837074750
sexit1_ir 0
#2837078750
supdate_ir 0
#2837083000
05
sOCMD=NRSBYPASS-OSR=MCLKa-DEBUG 2
sMCLKa-DEBUG 4
sir_i=1000100000-ir_o=1001000001 1
srun_test_idle 0
#2837100250
sselect_dr_scan 0
#2837104250
sselect_ir_scan 0
#2837108250
scapture_ir 0
#2837112500
sshift_ir 0
#2837160250
sexit1_ir 0
#2837164500
supdate_ir 0
#2837168500
05
sOCMD=R-DBSR-OSR=MCLKa-DEBUG 2
sMCLKa-DEBUG 4
sir_i=0000110001-ir_o=1001000001 1
srun_test_idle 0
#2837185750
sselect_dr_scan 0
#2837189750
scapture_dr 0
#2837193750
sshift_dr 0
#2838649750
sexit1_dr 0
#2838662750
supdate_dr 0
#2838666750
sR-DBSR(192) 3
sin=000000000000000000000000000000000000000000000000000000000000000000000000000000000000000000000000000000000000000000000000000000000000000000000000000000000000000000000000000000000000000000000000-out=000001011101010000000000000000100100000000000000000000000000000000000000000011000000000001000000001000000000001111111111111111110110010111000000100000000011111001000000000000000000000000000000 1
srun_test_idle 0
#2838692250
sselect_dr_scan 0
#2838696250
sselect_ir_scan 0
#2838700250
scapture_ir 0
#2838704500
sshift_ir 0
#2838752250
sexit1_ir 0
#2838756250
supdate_ir 0
#2838760500
05
sOCMD=NRSBYPASS-OSR=MCLKa-DEBUG 2
sMCLKa-DEBUG 4
sir_i=1000100000-ir_o=1001000001 1
srun_test_idle 0
#2839328750
sselect_dr_scan 0
#2839333000
sselect_ir_scan 0
#2839337000
scapture_ir 0
#2839341000
sshift_ir 0
#2839389000
sexit1_ir 0
#2839393000
supdate_ir 0
